EDA Open Space
…
There are some SA2s with no open space. Where are these communities?

# There are some SA2's with no open space? and some that are 100%
a <- nsw_os_data %>% 
  filter(PERC_OPEN_SPACE < 0.01) %>% 
  select(SA2_CODE, SA2_NAME_2016, PERC_OPEN_SPACE)

a

## # A tibble: 21 x 3
##     SA2_CODE SA2_NAME_2016             PERC_OPEN_SPACE
##        <int> <chr>                               <dbl>
##  1 103011059 Bathurst - East                 0.00646  
##  2 103021067 Parkes (NSW)                    0.00885  
##  3 105011092 Bourke - Brewarrina             0.0000470
##  4 105011094 Coonamble                       0.00138  
##  5 105011096 Walgett - Lightning Ridge       0.00667  
##  6 105021097 Broken Hill                     0.00729  
##  7 105031105 Narromine                       0.00767  
##  8 105031106 Wellington                      0.000334 
##  9 106021116 Maitland - North                0.00929  
## 10 106041126 Muswellbrook                    0.00665  
## # ... with 11 more rows
…
